…
``` r
hom_df_glm = hom_df %>% 
  nest(resolved, victim_age, victim_sex, victim_race) %>% 
  mutate(models = map(data, glm_func)) %>% 
  unnest(models) %>% 
  select(-data)
```

``` r
hom_df_glm 
```

    ## # A tibble: 47 x 4
    ##    city_state         OR lower_bound upper_bound
    ##    <chr>           <dbl>       <dbl>       <dbl>
    ##  1 Albuquerque, NM 0.951      0.590        1.53 
    ##  2 Atlanta, GA     0.753      0.432        1.31 
    ##  3 Baltimore, MD   0.441      0.313        0.620
    ##  4 Baton Rouge, LA 0.668      0.313        1.43 
    ##  5 Birmingham, AL  1.04       0.616        1.76 
    ##  6 Boston, MA      0.118      0.0489       0.285
    ##  7 Buffalo, NY     0.390      0.213        0.715
    ##  8 Charlotte, NC   0.558      0.321        0.969
    ##  9 Chicago, IL     0.559      0.429        0.729
    ## 10 Cincinnati, OH  0.319      0.184        0.552
    ## # ... with 37 more rows
